Bayesian Regression Models · CRRao.jl
…
source
Logistic Regression with Cauchy Prior
StatsAPI.fit — Function
fit(formula::FormulaTerm, data::DataFrame, modelClass::LogisticRegression, Link::CRRaoLink, prior::Prior_Cauchy, h::Float64 = 0.1, level::Float64 = 0.95, sim_size::Int64 = 1000)
Fit a Bayesian Logistic Regression model on the input data with a Cauchy prior with the provided Link function.
Example

julia> using CRRao, RDatasets, StableRNGs, StatsModels
julia> CRRao.set_rng(StableRNG(123))
StableRNGs.LehmerRNG(state=0x000000000000000000000000000000f7)
julia> turnout = dataset("Zelig", "turnout")
2000×5 DataFrame
  Row │ Race   Age    Educate  Income   Vote  
      │ Cat…   Int32  Float64  Float64  Int32 
──────┼───────────────────────────────────────
    1 │ white     60     14.0   3.3458      1
    2 │ white     51     10.0   1.8561      0
    3 │ white     24     12.0   0.6304      0
    4 │ white     38      8.0   3.4183      1
  ⋮   │   ⋮      ⋮       ⋮        ⋮       ⋮
 1998 │ white     51     16.0   7.8949      1
 1999 │ white     22     10.0   2.4811      0
 2000 │ white     59     10.0   0.5523      0
                             1993 rows omitted
…
source
Logistic Regression with T-Distributed Prior
StatsAPI.fit — Function
fit(formula::FormulaTerm, data::DataFrame, modelClass::LogisticRegression, Link::CRRaoLink, prior::Prior_TDist, h::Float64 = 1.0, level::Float64 = 0.95, sim_size::Int64 = 1000)
Fit a Bayesian Logistic Regression model on the input data with a T-Dist prior with the provided Link function.
Example

julia> using CRRao, RDatasets, StableRNGs, StatsModels
julia> CRRao.set_rng(StableRNG(123))
StableRNGs.LehmerRNG(state=0x000000000000000000000000000000f7)
julia> turnout = dataset("Zelig", "turnout")
2000×5 DataFrame
  Row │ Race   Age    Educate  Income   Vote  
      │ Cat…   Int32  Float64  Float64  Int32 
──────┼───────────────────────────────────────
    1 │ white     60     14.0   3.3458      1
    2 │ white     51     10.0   1.8561      0
    3 │ white     24     12.0   0.6304      0
    4 │ white     38      8.0   3.4183      1
  ⋮   │   ⋮      ⋮       ⋮        ⋮       ⋮
 1998 │ white     51     16.0   7.8949      1
 1999 │ white     22     10.0   2.4811      0
 2000 │ white     59     10.0   0.5523      0
                             1993 rows omitted
…
source
Negative Binomial Regression with Cauchy Prior
StatsAPI.fit — Function
fit(formula::FormulaTerm, data::DataFrame, modelClass::NegBinomRegression, prior::Prior_Cauchy, h::Float64 = 1.0, sim_size::Int64 = 1000)
Fit a Bayesian Negative Binomial Regression model on the input data with a Cauchy prior.
Example

julia> using CRRao, RDatasets, StableRNGs, StatsModels
julia> sanction = dataset("Zelig", "sanction")
78×8 DataFrame
 Row │ Mil    Coop   Target  Import  Export  Cost   Num    NCost         
     │ Int32  Int32  Int32   Int32   Int32   Int32  Int32  Cat…          
─────┼───────────────────────────────────────────────────────────────────
   1 │     1      4       3       1       1      4     15  major loss
   2 │     0      2       3       0       1      3      4  modest loss
   3 │     0      1       3       1       0      2      1  little effect
   4 │     1      1       3       1       1      2      1  little effect
  ⋮  │   ⋮      ⋮      ⋮       ⋮       ⋮       ⋮      ⋮          ⋮
  76 │     0      4       3       1       0      2     13  little effect
  77 │     0      1       2       0       0      1      1  net gain
  78 │     1      3       1       1       1      2     10  little effect
                                                          71 rows omitted
…
source
Negative Binomial Regression with T-Distributed Prior
StatsAPI.fit — Function
fit(formula::FormulaTerm, data::DataFrame, modelClass::NegBinomRegression, prior::Prior_TDist, h::Float64 = 1.0, sim_size::Int64 = 1000)
Fit a Bayesian Negative Binomial Regression model on the input data with a t(ν) distributed prior.
Example

julia> using CRRao, RDatasets, StableRNGs, StatsModels
julia> sanction = dataset("Zelig", "sanction")
78×8 DataFrame
 Row │ Mil    Coop   Target  Import  Export  Cost   Num    NCost         
     │ Int32  Int32  Int32   Int32   Int32   Int32  Int32  Cat…          
─────┼───────────────────────────────────────────────────────────────────
   1 │     1      4       3       1       1      4     15  major loss
   2 │     0      2       3       0       1      3      4  modest loss
   3 │     0      1       3       1       0      2      1  little effect
   4 │     1      1       3       1       1      2      1  little effect
  ⋮  │   ⋮      ⋮      ⋮       ⋮       ⋮       ⋮      ⋮          ⋮
  76 │     0      4       3       1       0      2     13  little effect
  77 │     0      1       2       0       0      1      1  net gain
  78 │     1      3       1       1       1      2     10  little effect
                                                          71 rows omitted
…
source
Poisson Regression with Laplace Prior
StatsAPI.fit — Function
fit(formula::FormulaTerm, data::DataFrame, modelClass::PoissonRegression, prior::Prior_Laplace, h::Float64 = 0.1, sim_size::Int64 = 1000)
Fit a Bayesian Poisson Regression model on the input data with a Laplace prior.
Example

julia> using CRRao, RDatasets, StableRNGs, StatsModels
julia> sanction = dataset("Zelig", "sanction")
78×8 DataFrame
 Row │ Mil    Coop   Target  Import  Export  Cost   Num    NCost         
     │ Int32  Int32  Int32   Int32   Int32   Int32  Int32  Cat…          
─────┼───────────────────────────────────────────────────────────────────
   1 │     1      4       3       1       1      4     15  major loss
   2 │     0      2       3       0       1      3      4  modest loss
   3 │     0      1       3       1       0      2      1  little effect
   4 │     1      1       3       1       1      2      1  little effect
  ⋮  │   ⋮      ⋮      ⋮       ⋮       ⋮       ⋮      ⋮          ⋮
  76 │     0      4       3       1       0      2     13  little effect
  77 │     0      1       2       0       0      1      1  net gain
  78 │     1      3       1       1       1      2     10  little effect
71 rows omitted
…
source
Poisson Regression with Cauchy Prior
StatsAPI.fit — Function
fit(formula::FormulaTerm, data::DataFrame, modelClass::LinearRegression, prior::Prior_Cauchy, h::Float64 = 1.0, sim_size::Int64 = 1000)
Fit a Bayesian Poisson Regression model on the input data with a Cauchy prior.
Example

julia> using CRRao, RDatasets, StableRNGs, StatsModels
julia> sanction = dataset("Zelig", "sanction")
78×8 DataFrame
 Row │ Mil    Coop   Target  Import  Export  Cost   Num    NCost         
     │ Int32  Int32  Int32   Int32   Int32   Int32  Int32  Cat…          
─────┼───────────────────────────────────────────────────────────────────
   1 │     1      4       3       1       1      4     15  major loss
   2 │     0      2       3       0       1      3      4  modest loss
   3 │     0      1       3       1       0      2      1  little effect
   4 │     1      1       3       1       1      2      1  little effect
  ⋮  │   ⋮      ⋮      ⋮       ⋮       ⋮       ⋮      ⋮          ⋮
  76 │     0      4       3       1       0      2     13  little effect
  77 │     0      1       2       0       0      1      1  net gain
  78 │     1      3       1       1       1      2     10  little effect
71 rows omitted
…
source
Poisson Regression with T-Distributed Prior
StatsAPI.fit — Function
fit(formula::FormulaTerm, data::DataFrame, modelClass::PoissonRegression, prior::Prior_TDist, h::Float64 = 2.0, sim_size::Int64 = 1000)
Fit a Bayesian Poisson Regression model on the input data with a t(ν) distributed prior.
Example

julia> using CRRao, RDatasets, StableRNGs, StatsModels
julia> CRRao.set_rng(StableRNG(123))
StableRNGs.LehmerRNG(state=0x000000000000000000000000000000f7)
julia> sanction = dataset("Zelig", "sanction")
78×8 DataFrame
 Row │ Mil    Coop   Target  Import  Export  Cost   Num    NCost         
     │ Int32  Int32  Int32   Int32   Int32   Int32  Int32  Cat…          
─────┼───────────────────────────────────────────────────────────────────
   1 │     1      4       3       1       1      4     15  major loss
   2 │     0      2       3       0       1      3      4  modest loss
   3 │     0      1       3       1       0      2      1  little effect
   4 │     1      1       3       1       1      2      1  little effect
  ⋮  │   ⋮      ⋮      ⋮       ⋮       ⋮       ⋮      ⋮          ⋮
  76 │     0      4       3       1       0      2     13  little effect
  77 │     0      1       2       0       0      1      1  net gain
  78 │     1      3       1       1       1      2     10  little effect
71 rows omitted
…
