…
```jldoctest examples
julia> using RDatasets, NLSolversBase, CRRao, Logging, StableRNGs;

julia> Logging.disable_logging(Logging.Warn); CRRao.setprogress!(false);

julia> CRRao.set_rng(StableRNG(1234))
StableRNGs.LehmerRNG(state=0x000000000000000000000000000009a5)
```

## Example 1: Linear Regression

```jldoctest examples
julia> df = dataset("datasets", "mtcars")
32×12 DataFrame
 Row │ Model              MPG      Cyl    Disp     HP     DRat     WT       QS ⋯
     │ String31           Float64  Int64  Float64  Int64  Float64  Float64  Fl ⋯
─────┼──────────────────────────────────────────────────────────────────────────
   1 │ Mazda RX4             21.0      6    160.0    110     3.9     2.62      ⋯
   2 │ Mazda RX4 Wag         21.0      6    160.0    110     3.9     2.875
   3 │ Datsun 710            22.8      4    108.0     93     3.85    2.32
   4 │ Hornet 4 Drive        21.4      6    258.0    110     3.08    3.215
   5 │ Hornet Sportabout     18.7      8    360.0    175     3.15    3.44      ⋯
   6 │ Valiant               18.1      6    225.0    105     2.76    3.46
   7 │ Duster 360            14.3      8    360.0    245     3.21    3.57
   8 │ Merc 240D             24.4      4    146.7     62     3.69    3.19
  ⋮  │         ⋮             ⋮       ⋮       ⋮       ⋮       ⋮        ⋮        ⋱
  26 │ Fiat X1-9             27.3      4     79.0     66     4.08    1.935     ⋯
  27 │ Porsche 914-2         26.0      4    120.3     91     4.43    2.14
  28 │ Lotus Europa          30.4      4     95.1    113     3.77    1.513
  29 │ Ford Pantera L        15.8      8    351.0    264     4.22    3.17
  30 │ Ferrari Dino          19.7      6    145.0    175     3.62    2.77      ⋯
  31 │ Maserati Bora         15.0      8    301.0    335     3.54    3.57
  32 │ Volvo 142E            21.4      4    121.0    109     4.11    2.78
                                                   5 columns and 17 rows omitted
…
           ν    0.3749    0.6698    0.9298    1.3095    2.5508
           σ    2.0306    2.3712    2.5893    2.8418    3.4723
           α   20.4677   27.3179   30.5001   33.5657   39.1292
        β[1]   -0.0596   -0.0460   -0.0392   -0.0324   -0.0198
        β[2]   -4.5194   -3.4288   -2.8534   -2.2704   -1.1239
        β[3]   -0.3362    0.6886    1.2226    1.8201    3.0601

```

## Example 2: Logistic Regression 
```jldoctest examples
julia> turnout = dataset("Zelig", "turnout")
2000×5 DataFrame
  Row │ Race   Age    Educate  Income   Vote
      │ Cat…   Int32  Float64  Float64  Int32
──────┼───────────────────────────────────────
    1 │ white     60     14.0   3.3458      1
    2 │ white     51     10.0   1.8561      0
    3 │ white     24     12.0   0.6304      0
    4 │ white     38      8.0   3.4183      1
    5 │ white     25     12.0   2.7852      1
    6 │ white     67     12.0   2.3866      1
    7 │ white     40     12.0   4.2857      0
    8 │ white     56     10.0   9.3205      1
  ⋮   │   ⋮      ⋮       ⋮        ⋮       ⋮
 1994 │ white     58     12.0   0.1936      0
 1995 │ white     22      7.0   0.2364      0
 1996 │ white     26     16.0   3.3834      0
 1997 │ white     34     12.0   2.917       1
 1998 │ white     51     16.0   7.8949      1
 1999 │ white     22     10.0   2.4811      0
 2000 │ white     59     10.0   0.5523      0
                             1985 rows omitted
…
           v    0.7552    1.5016    2.7477    6.3105   68.6481
        β[1]   -0.5073   -0.5073   -0.5073   -0.5073   -0.5073
        β[2]    0.0082    0.0109    0.0123    0.0137    0.0165
        β[3]   -0.5073   -0.5073   -0.5073   -0.5073   -0.5073
        β[4]    0.1307    0.1651    0.1824    0.1998    0.2345
        β[5]    0.0533    0.0682    0.0760    0.0838    0.0985

```

## Example 3: Poisson Regression

 **Poisson Regression - Likelihood analysis**
```jldoctest examples
sanction = dataset("Zelig", "sanction")
78×8 DataFrame
 Row │ Mil    Coop   Target  Import  Export  Cost   Num    NCost
     │ Int32  Int32  Int32   Int32   Int32   Int32  Int32  Cat…
─────┼───────────────────────────────────────────────────────────────────
   1 │     1      4       3       1       1      4     15  major loss
   2 │     0      2       3       0       1      3      4  modest loss
   3 │     0      1       3       1       0      2      1  little effect
   4 │     1      1       3       1       1      2      1  little effect
   5 │     0      1       3       1       1      2      1  little effect
   6 │     0      1       3       0       1      2      1  little effect
   7 │     1      2       2       0       1      2      3  little effect
   8 │     0      1       3       0       0      2      3  little effect
  ⋮  │   ⋮      ⋮      ⋮       ⋮       ⋮       ⋮      ⋮          ⋮
  72 │     0      2       2       0       0      1      8  net gain
  73 │     1      3       1       1       1      2     14  little effect
  74 │     0      2       1       0       0      1      2  net gain
  75 │     0      1       3       0       1      2      1  little effect
  76 │     0      4       3       1       0      2     13  little effect
  77 │     0      1       2       0       0      1      1  net gain
  78 │     1      3       1       1       1      2     10  little effect
                                                          63 rows omitted
…
           λ    2.3312    4.1421    7.0190   15.1146   160.2559
           α   -1.6312   -1.6312   -1.6312   -1.6312    -1.6312
        β[1]    0.0177    0.0783    0.1108    0.1441     0.2055
        β[2]    1.0485    1.0932    1.1182    1.1415     1.1844
        β[3]   -0.8226   -0.5151   -0.3640   -0.2234     0.0370
        β[4]    1.6312    1.6312    1.6312    1.6312     1.6312
        β[5]    0.0619    0.2449    0.3343    0.4241     0.5893

```

## Example 4: Negative Binomial Regression

```jldoctest examples
julia> sanction = dataset("Zelig", "sanction")
78×8 DataFrame
 Row │ Mil    Coop   Target  Import  Export  Cost   Num    NCost
     │ Int32  Int32  Int32   Int32   Int32   Int32  Int32  Cat…
─────┼───────────────────────────────────────────────────────────────────
   1 │     1      4       3       1       1      4     15  major loss
   2 │     0      2       3       0       1      3      4  modest loss
   3 │     0      1       3       1       0      2      1  little effect
   4 │     1      1       3       1       1      2      1  little effect
   5 │     0      1       3       1       1      2      1  little effect
   6 │     0      1       3       0       1      2      1  little effect
   7 │     1      2       2       0       1      2      3  little effect
   8 │     0      1       3       0       0      2      3  little effect
  ⋮  │   ⋮      ⋮      ⋮       ⋮       ⋮       ⋮      ⋮          ⋮
  72 │     0      2       2       0       0      1      8  net gain
  73 │     1      3       1       1       1      2     14  little effect
  74 │     0      2       1       0       0      1      2  net gain
  75 │     0      1       3       0       1      2      1  little effect
  76 │     0      4       3       1       0      2     13  little effect
  77 │     0      1       2       0       0      1      1  net gain
  78 │     1      3       1       1       1      2     10  little effect
                                                          63 rows omitted
…
