General Interface · CRRao.jl
…
CRRao also supports Bayesian models, and the priors to be can be specified while calling fit. Currently CRRao supports four different kinds of priors, and the type of the prior parameter must be one of the following.
Prior_Ridge
Prior_Laplace
Prior_Cauchy
Prior_TDist

CRRao.fit — Function
fit(formula::FormulaTerm, data::DataFrame, modelClass::LinearRegression)
Fit an OLS Linear Regression model on the input data. Uses the lm method from the GLM package under the hood. Returns an object of type FrequentistRegression{:LinearRegression}.
Example

julia> using CRRao, RDatasets, StatsPlots, StatsModels
julia> df = dataset("datasets", "mtcars")
32×12 DataFrame
 Row │ Model              MPG      Cyl    Disp     HP     DRat     WT       QSec     VS     AM     Gear   Carb  
     │ String31           Float64  Int64  Float64  Int64  Float64  Float64  Float64  Int64  Int64  Int64  Int64 
─────┼──────────────────────────────────────────────────────────────────────────────────────────────────────────
   1 │ Mazda RX4             21.0      6    160.0    110     3.9     2.62     16.46      0      1      4      4
   2 │ Mazda RX4 Wag         21.0      6    160.0    110     3.9     2.875    17.02      0      1      4      4
   3 │ Datsun 710            22.8      4    108.0     93     3.85    2.32     18.61      1      1      4      1
   4 │ Hornet 4 Drive        21.4      6    258.0    110     3.08    3.215    19.44      1      0      3      1
   5 │ Hornet Sportabout     18.7      8    360.0    175     3.15    3.44     17.02      0      0      3      2
   6 │ Valiant               18.1      6    225.0    105     2.76    3.46     20.22      1      0      3      1
  ⋮  │         ⋮             ⋮       ⋮       ⋮       ⋮       ⋮        ⋮        ⋮       ⋮      ⋮      ⋮      ⋮
  27 │ Porsche 914-2         26.0      4    120.3     91     4.43    2.14     16.7       0      1      5      2
  28 │ Lotus Europa          30.4      4     95.1    113     3.77    1.513    16.9       1      1      5      2
  29 │ Ford Pantera L        15.8      8    351.0    264     4.22    3.17     14.5       0      1      5      4
  30 │ Ferrari Dino          19.7      6    145.0    175     3.62    2.77     15.5       0      1      5      6
  31 │ Maserati Bora         15.0      8    301.0    335     3.54    3.57     14.6       0      1      5      8
  32 │ Volvo 142E            21.4      4    121.0    109     4.11    2.78     18.6       1      1      4      2
                                                                                                 20 rows omitted
…
source

fit(formula::FormulaTerm, data::DataFrame, modelClass::LogisticRegression, Link::Logit)
Fit a Logistic Regression model on the input data using the Logit link. Uses the glm method from the GLM package under the hood. Returns an object of type FrequentistRegression{:LogisticRegression}.
Example

julia> using CRRao, RDatasets, StatsModels
julia> turnout = dataset("Zelig", "turnout")
2000×5 DataFrame
  Row │ Race   Age    Educate  Income   Vote  
      │ Cat…   Int32  Float64  Float64  Int32 
──────┼───────────────────────────────────────
    1 │ white     60     14.0   3.3458      1
    2 │ white     51     10.0   1.8561      0
    3 │ white     24     12.0   0.6304      0
    4 │ white     38      8.0   3.4183      1
    5 │ white     25     12.0   2.7852      1
    6 │ white     67     12.0   2.3866      1
  ⋮   │   ⋮      ⋮       ⋮        ⋮       ⋮
 1995 │ white     22      7.0   0.2364      0
 1996 │ white     26     16.0   3.3834      0
 1997 │ white     34     12.0   2.917       1
 1998 │ white     51     16.0   7.8949      1
 1999 │ white     22     10.0   2.4811      0
 2000 │ white     59     10.0   0.5523      0
                             1988 rows omitted
…
source

fit(formula::FormulaTerm, data::DataFrame, modelClass::LogisticRegression, Link::Cauchit)
Fit a Logistic Regression model on the input data using the Cauchit link. Uses the glm method from the GLM package under the hood. Returns an object of type FrequentistRegression{:LogisticRegression}.

source

fit(formula::FormulaTerm, data::DataFrame, modelClass::NegBinomRegression)
Fit a Negative Binomial Regression model on the input data (with the default link function being the Log link). Uses the glm method from the GLM package under the hood. Returns an object of type FrequentistRegression{:NegativeBinomialRegression}.
Example

julia> using CRRao, RDatasets, StatsModels
julia> sanction = dataset("Zelig", "sanction")
78×8 DataFrame
 Row │ Mil    Coop   Target  Import  Export  Cost   Num    NCost         
     │ Int32  Int32  Int32   Int32   Int32   Int32  Int32  Cat…          
─────┼───────────────────────────────────────────────────────────────────
   1 │     1      4       3       1       1      4     15  major loss
   2 │     0      2       3       0       1      3      4  modest loss
   3 │     0      1       3       1       0      2      1  little effect
   4 │     1      1       3       1       1      2      1  little effect
   5 │     0      1       3       1       1      2      1  little effect
   6 │     0      1       3       0       1      2      1  little effect
  ⋮  │   ⋮      ⋮      ⋮       ⋮       ⋮       ⋮      ⋮          ⋮
  73 │     1      3       1       1       1      2     14  little effect
  74 │     0      2       1       0       0      1      2  net gain
  75 │     0      1       3       0       1      2      1  little effect
  76 │     0      4       3       1       0      2     13  little effect
  77 │     0      1       2       0       0      1      1  net gain
  78 │     1      3       1       1       1      2     10  little effect
                                                          66 rows omitted
…
source

fit(formula::FormulaTerm, data::DataFrame, modelClass::PoissonRegression)
Fit a Poisson Regression model on the input data (with the default link function being the Log link). Uses the glm method from the GLM package under the hood. Returns an object of type FrequentistRegression{:PoissonRegression}.
Example

julia> using CRRao, RDatasets, StatsModels
julia> sanction = dataset("Zelig", "sanction")
78×8 DataFrame
 Row │ Mil    Coop   Target  Import  Export  Cost   Num    NCost         
     │ Int32  Int32  Int32   Int32   Int32   Int32  Int32  Cat…          
─────┼───────────────────────────────────────────────────────────────────
   1 │     1      4       3       1       1      4     15  major loss
   2 │     0      2       3       0       1      3      4  modest loss
   3 │     0      1       3       1       0      2      1  little effect
   4 │     1      1       3       1       1      2      1  little effect
   5 │     0      1       3       1       1      2      1  little effect
   6 │     0      1       3       0       1      2      1  little effect
  ⋮  │   ⋮      ⋮      ⋮       ⋮       ⋮       ⋮      ⋮          ⋮
  73 │     1      3       1       1       1      2     14  little effect
  74 │     0      2       1       0       0      1      2  net gain
  75 │     0      1       3       0       1      2      1  little effect
  76 │     0      4       3       1       0      2     13  little effect
  77 │     0      1       2       0       0      1      1  net gain
  78 │     1      3       1       1       1      2     10  little effect
                                                          66 rows omitted
…
source

fit(formula::FormulaTerm, data::DataFrame, modelClass::LinearRegression, prior::Prior_Ridge, h::Float64 = 0.01, sim_size::Int64 = 1000)
Fit a Bayesian Linear Regression model on the input data with a Ridge prior.
Example

julia> using CRRao, RDatasets, StableRNGs, StatsModels
julia> CRRao.set_rng(StableRNG(123))
StableRNGs.LehmerRNG(state=0x000000000000000000000000000000f7)
julia> df = dataset("datasets", "mtcars")
32×12 DataFrame
 Row │ Model              MPG      Cyl    Disp     HP     DRat     WT       QSec     VS     AM     Gear   Carb  
     │ String31           Float64  Int64  Float64  Int64  Float64  Float64  Float64  Int64  Int64  Int64  Int64 
─────┼──────────────────────────────────────────────────────────────────────────────────────────────────────────
   1 │ Mazda RX4             21.0      6    160.0    110     3.9     2.62     16.46      0      1      4      4
   2 │ Mazda RX4 Wag         21.0      6    160.0    110     3.9     2.875    17.02      0      1      4      4
   3 │ Datsun 710            22.8      4    108.0     93     3.85    2.32     18.61      1      1      4      1
   4 │ Hornet 4 Drive        21.4      6    258.0    110     3.08    3.215    19.44      1      0      3      1
  ⋮  │         ⋮             ⋮       ⋮       ⋮       ⋮       ⋮        ⋮        ⋮       ⋮      ⋮      ⋮      ⋮
  30 │ Ferrari Dino          19.7      6    145.0    175     3.62    2.77     15.5       0      1      5      6
  31 │ Maserati Bora         15.0      8    301.0    335     3.54    3.57     14.6       0      1      5      8
  32 │ Volvo 142E            21.4      4    121.0    109     4.11    2.78     18.6       1      1      4      2
                                                                                                 25 rows omitted
…
source

fit(formula::FormulaTerm, data::DataFrame, modelClass::LinearRegression, prior::Prior_Laplace, h::Float64 = 0.01, sim_size::Int64 = 1000)
Fit a Bayesian Linear Regression model on the input data with a Laplace prior.
Example

julia> using CRRao, RDatasets, StableRNGs, StatsModels
julia> CRRao.set_rng(StableRNG(123))
StableRNGs.LehmerRNG(state=0x000000000000000000000000000000f7)
julia> df = dataset("datasets", "mtcars")
32×12 DataFrame
 Row │ Model              MPG      Cyl    Disp     HP     DRat     WT       QSec     VS     AM     Gear   Carb  
     │ String31           Float64  Int64  Float64  Int64  Float64  Float64  Float64  Int64  Int64  Int64  Int64 
─────┼──────────────────────────────────────────────────────────────────────────────────────────────────────────
   1 │ Mazda RX4             21.0      6    160.0    110     3.9     2.62     16.46      0      1      4      4
   2 │ Mazda RX4 Wag         21.0      6    160.0    110     3.9     2.875    17.02      0      1      4      4
   3 │ Datsun 710            22.8      4    108.0     93     3.85    2.32     18.61      1      1      4      1
   4 │ Hornet 4 Drive        21.4      6    258.0    110     3.08    3.215    19.44      1      0      3      1
  ⋮  │         ⋮             ⋮       ⋮       ⋮       ⋮       ⋮        ⋮        ⋮       ⋮      ⋮      ⋮      ⋮
  30 │ Ferrari Dino          19.7      6    145.0    175     3.62    2.77     15.5       0      1      5      6
  31 │ Maserati Bora         15.0      8    301.0    335     3.54    3.57     14.6       0      1      5      8
  32 │ Volvo 142E            21.4      4    121.0    109     4.11    2.78     18.6       1      1      4      2
                                                                                                 25 rows omitted
…
source

fit(formula::FormulaTerm, data::DataFrame, modelClass::LinearRegression, prior::Prior_Cauchy, sim_size::Int64 = 1000)
Fit a Bayesian Linear Regression model on the input data with a Cauchy prior.
Example

julia> using CRRao, RDatasets, StableRNGs, StatsModels
julia> CRRao.set_rng(StableRNG(123))
StableRNGs.LehmerRNG(state=0x000000000000000000000000000000f7)
julia> df = dataset("datasets", "mtcars")
32×12 DataFrame
 Row │ Model              MPG      Cyl    Disp     HP     DRat     WT       QSec     VS     AM     Gear   Carb  
     │ String31           Float64  Int64  Float64  Int64  Float64  Float64  Float64  Int64  Int64  Int64  Int64 
─────┼──────────────────────────────────────────────────────────────────────────────────────────────────────────
   1 │ Mazda RX4             21.0      6    160.0    110     3.9     2.62     16.46      0      1      4      4
   2 │ Mazda RX4 Wag         21.0      6    160.0    110     3.9     2.875    17.02      0      1      4      4
   3 │ Datsun 710            22.8      4    108.0     93     3.85    2.32     18.61      1      1      4      1
   4 │ Hornet 4 Drive        21.4      6    258.0    110     3.08    3.215    19.44      1      0      3      1
  ⋮  │         ⋮             ⋮       ⋮       ⋮       ⋮       ⋮        ⋮        ⋮       ⋮      ⋮      ⋮      ⋮
  30 │ Ferrari Dino          19.7      6    145.0    175     3.62    2.77     15.5       0      1      5      6
  31 │ Maserati Bora         15.0      8    301.0    335     3.54    3.57     14.6       0      1      5      8
  32 │ Volvo 142E            21.4      4    121.0    109     4.11    2.78     18.6       1      1      4      2
                                                                                                 25 rows omitted
…
source

fit(formula::FormulaTerm, data::DataFrame, modelClass::LinearRegression, prior::Prior_TDist, h::Float64 = 2.0, sim_size::Int64 = 1000)
Fit a Bayesian Linear Regression model on the input data with a t(ν) distributed prior.
Example

julia> using CRRao, RDatasets, StableRNGs, StatsPlots, StatsModels
julia> CRRao.set_rng(StableRNG(123))
StableRNGs.LehmerRNG(state=0x000000000000000000000000000000f7)
julia> df = dataset("datasets", "mtcars")
32×12 DataFrame
 Row │ Model              MPG      Cyl    Disp     HP     DRat     WT       QSec     VS     AM     Gear   Carb  
     │ String31           Float64  Int64  Float64  Int64  Float64  Float64  Float64  Int64  Int64  Int64  Int64 
─────┼──────────────────────────────────────────────────────────────────────────────────────────────────────────
   1 │ Mazda RX4             21.0      6    160.0    110     3.9     2.62     16.46      0      1      4      4
   2 │ Mazda RX4 Wag         21.0      6    160.0    110     3.9     2.875    17.02      0      1      4      4
   3 │ Datsun 710            22.8      4    108.0     93     3.85    2.32     18.61      1      1      4      1
   4 │ Hornet 4 Drive        21.4      6    258.0    110     3.08    3.215    19.44      1      0      3      1
  ⋮  │         ⋮             ⋮       ⋮       ⋮       ⋮       ⋮        ⋮        ⋮       ⋮      ⋮      ⋮      ⋮
  30 │ Ferrari Dino          19.7      6    145.0    175     3.62    2.77     15.5       0      1      5      6
  31 │ Maserati Bora         15.0      8    301.0    335     3.54    3.57     14.6       0      1      5      8
  32 │ Volvo 142E            21.4      4    121.0    109     4.11    2.78     18.6       1      1      4      2
                                                                                                 25 rows omitted
…
source

fit(formula::FormulaTerm, data::DataFrame, modelClass::LogisticRegression, Link::CRRaoLink, prior::Prior_Ridge, h::Float64 = 0.1, level::Float64 = 0.95, sim_size::Int64 = 1000)
Fit a Bayesian Logistic Regression model on the input data with a Ridge prior with the provided Link function.
Example

julia> using CRRao, RDatasets, StableRNGs, StatsModels
julia> CRRao.set_rng(StableRNG(123))
StableRNGs.LehmerRNG(state=0x000000000000000000000000000000f7)
julia> turnout = dataset("Zelig", "turnout")
2000×5 DataFrame
  Row │ Race   Age    Educate  Income   Vote  
      │ Cat…   Int32  Float64  Float64  Int32 
──────┼───────────────────────────────────────
    1 │ white     60     14.0   3.3458      1
    2 │ white     51     10.0   1.8561      0
    3 │ white     24     12.0   0.6304      0
    4 │ white     38      8.0   3.4183      1
  ⋮   │   ⋮      ⋮       ⋮        ⋮       ⋮
 1998 │ white     51     16.0   7.8949      1
 1999 │ white     22     10.0   2.4811      0
 2000 │ white     59     10.0   0.5523      0
                             1993 rows omitted
…
source

fit(formula::FormulaTerm, data::DataFrame, modelClass::LogisticRegression, Link::CRRaoLink, prior::Prior_Laplace, h::Float64 = 0.1, level::Float64 = 0.95, sim_size::Int64 = 1000)
Fit a Bayesian Logistic Regression model on the input data with a Laplace prior with the provided Link function.
Example

julia> using CRRao, RDatasets, StableRNGs, StatsModels
julia> CRRao.set_rng(StableRNG(123))
StableRNGs.LehmerRNG(state=0x000000000000000000000000000000f7)
julia> turnout = dataset("Zelig", "turnout")
2000×5 DataFrame
  Row │ Race   Age    Educate  Income   Vote  
      │ Cat…   Int32  Float64  Float64  Int32 
──────┼───────────────────────────────────────
    1 │ white     60     14.0   3.3458      1
    2 │ white     51     10.0   1.8561      0
    3 │ white     24     12.0   0.6304      0
    4 │ white     38      8.0   3.4183      1
  ⋮   │   ⋮      ⋮       ⋮        ⋮       ⋮
 1998 │ white     51     16.0   7.8949      1
 1999 │ white     22     10.0   2.4811      0
 2000 │ white     59     10.0   0.5523      0
                             1993 rows omitted
…
source

fit(formula::FormulaTerm, data::DataFrame, modelClass::LogisticRegression, Link::CRRaoLink, prior::Prior_Cauchy, h::Float64 = 0.1, level::Float64 = 0.95, sim_size::Int64 = 1000)
Fit a Bayesian Logistic Regression model on the input data with a Cauchy prior with the provided Link function.
Example

julia> using CRRao, RDatasets, StableRNGs, StatsModels
julia> CRRao.set_rng(StableRNG(123))
StableRNGs.LehmerRNG(state=0x000000000000000000000000000000f7)
julia> turnout = dataset("Zelig", "turnout")
2000×5 DataFrame
  Row │ Race   Age    Educate  Income   Vote  
      │ Cat…   Int32  Float64  Float64  Int32 
──────┼───────────────────────────────────────
    1 │ white     60     14.0   3.3458      1
    2 │ white     51     10.0   1.8561      0
    3 │ white     24     12.0   0.6304      0
    4 │ white     38      8.0   3.4183      1
  ⋮   │   ⋮      ⋮       ⋮        ⋮       ⋮
 1998 │ white     51     16.0   7.8949      1
 1999 │ white     22     10.0   2.4811      0
 2000 │ white     59     10.0   0.5523      0
                             1993 rows omitted
…
source

fit(formula::FormulaTerm, data::DataFrame, modelClass::LogisticRegression, Link::CRRaoLink, prior::Prior_TDist, h::Float64 = 1.0, level::Float64 = 0.95, sim_size::Int64 = 1000)
Fit a Bayesian Logistic Regression model on the input data with a T-Dist prior with the provided Link function.
Example

julia> using CRRao, RDatasets, StableRNGs, StatsModels
julia> CRRao.set_rng(StableRNG(123))
StableRNGs.LehmerRNG(state=0x000000000000000000000000000000f7)
julia> turnout = dataset("Zelig", "turnout")
2000×5 DataFrame
  Row │ Race   Age    Educate  Income   Vote  
      │ Cat…   Int32  Float64  Float64  Int32 
──────┼───────────────────────────────────────
    1 │ white     60     14.0   3.3458      1
    2 │ white     51     10.0   1.8561      0
    3 │ white     24     12.0   0.6304      0
    4 │ white     38      8.0   3.4183      1
  ⋮   │   ⋮      ⋮       ⋮        ⋮       ⋮
 1998 │ white     51     16.0   7.8949      1
 1999 │ white     22     10.0   2.4811      0
 2000 │ white     59     10.0   0.5523      0
                             1993 rows omitted
…
